{
  "resource": "Complaints",
  "resource_explanation": null,
  "http_method": "GET",
  "route": "/complaints",
  "description": "List complaints filtered by country",
  "explanation": null,
  "parameters": [
    {
      "name": "company_id",
      "description": "Filter complaints by company"
    },
    {
      "name": "country_id",
      "description": "Filter complaints by country"
    },
    {
      "name": "state_id",
      "description": "Filter complaints by state"
    },
    {
      "name": "city_id",
      "description": "Filter complaints by city"
    }
  ],
  "response_fields": [

  ],
  "requests": [
    {
      "request_method": "GET",
      "request_path": "/complaints?country_id=5cf586c053a63446b0146329",
      "request_body": null,
      "request_headers": {
        "Host": "example.org",
        "Cookie": ""
      },
      "request_query_parameters": {
        "country_id": "5cf586c053a63446b0146329"
      },
      "request_content_type": null,
      "response_status": 200,
      "response_status_text": "OK",
      "response_body": "{\n  \"complaints\": [\n    {\n      \"id\": \"5cf586c053a63446b0146334\",\n      \"title\": \"Aut voluptatem iure praesentium.\",\n      \"description\": \"Consequatur rerum et. Ducimus odio neque. Veritatis est quis.\",\n      \"city\": {\n        \"id\": \"5cf586c053a63446b014632e\",\n        \"name\": \"Foz do Iguaçu\"\n      },\n      \"company\": {\n        \"id\": \"5cf586c053a63446b0146332\",\n        \"name\": \"Kunze, Cassin and Ortiz\"\n      }\n    },\n    {\n      \"id\": \"5cf586c053a63446b0146335\",\n      \"title\": \"Est facere aut adipisci.\",\n      \"description\": \"Id a laudantium. Vel totam quis. Qui earum aut.\",\n      \"city\": {\n        \"id\": \"5cf586c053a63446b014632e\",\n        \"name\": \"Foz do Iguaçu\"\n      },\n      \"company\": {\n        \"id\": \"5cf586c053a63446b0146332\",\n        \"name\": \"Kunze, Cassin and Ortiz\"\n      }\n    },\n    {\n      \"id\": \"5cf586c053a63446b0146336\",\n      \"title\": \"Non voluptatum maxime nihil.\",\n      \"description\": \"Amet at qui. Ratione adipisci beatae. Tempora similique repellendus.\",\n      \"city\": {\n        \"id\": \"5cf586c053a63446b014632e\",\n        \"name\": \"Foz do Iguaçu\"\n      },\n      \"company\": {\n        \"id\": \"5cf586c053a63446b0146332\",\n        \"name\": \"Kunze, Cassin and Ortiz\"\n      }\n    },\n    {\n      \"id\": \"5cf586c053a63446b0146337\",\n      \"title\": \"Rem et nihil voluptatem.\",\n      \"description\": \"Minima et eum. Alias quia odit. Cum id eligendi.\",\n      \"city\": {\n        \"id\": \"5cf586c053a63446b014632e\",\n        \"name\": \"Foz do Iguaçu\"\n      },\n      \"company\": {\n        \"id\": \"5cf586c053a63446b0146332\",\n        \"name\": \"Kunze, Cassin and Ortiz\"\n      }\n    },\n    {\n      \"id\": \"5cf586c053a63446b0146338\",\n      \"title\": \"Architecto a sapiente vel.\",\n      \"description\": \"Omnis consectetur aut. Sit facere impedit. Adipisci nostrum deleniti.\",\n      \"city\": {\n        \"id\": \"5cf586c053a63446b014632e\",\n        \"name\": \"Foz do Iguaçu\"\n      },\n      \"company\": {\n        \"id\": \"5cf586c053a63446b0146332\",\n        \"name\": \"Kunze, Cassin and Ortiz\"\n      }\n    },\n    {\n      \"id\": \"5cf586c053a63446b0146339\",\n      \"title\": \"Consequatur dolor libero reprehenderit.\",\n      \"description\": \"Ut facere voluptatem. Eius est rerum. Mollitia totam est.\",\n      \"city\": {\n        \"id\": \"5cf586c053a63446b014632e\",\n        \"name\": \"Foz do Iguaçu\"\n      },\n      \"company\": {\n        \"id\": \"5cf586c053a63446b0146332\",\n        \"name\": \"Kunze, Cassin and Ortiz\"\n      }\n    },\n    {\n      \"id\": \"5cf586c053a63446b014633a\",\n      \"title\": \"Odit quas facere tempora.\",\n      \"description\": \"Distinctio non itaque. Id delectus ipsam. Sunt cumque sed.\",\n      \"city\": {\n        \"id\": \"5cf586c053a63446b014632e\",\n        \"name\": \"Foz do Iguaçu\"\n      },\n      \"company\": {\n        \"id\": \"5cf586c053a63446b0146332\",\n        \"name\": \"Kunze, Cassin and Ortiz\"\n      }\n    },\n    {\n      \"id\": \"5cf586c053a63446b014633b\",\n      \"title\": \"Impedit perspiciatis dolorum veritatis.\",\n      \"description\": \"Natus rerum aut. Eum quae est. Velit laborum neque.\",\n      \"city\": {\n        \"id\": \"5cf586c053a63446b014632e\",\n        \"name\": \"Foz do Iguaçu\"\n      },\n      \"company\": {\n        \"id\": \"5cf586c053a63446b0146332\",\n        \"name\": \"Kunze, Cassin and Ortiz\"\n      }\n    },\n    {\n      \"id\": \"5cf586c053a63446b014633c\",\n      \"title\": \"Qui dolore et quia.\",\n      \"description\": \"Earum mollitia doloremque. Ducimus soluta et. Magnam fuga in.\",\n      \"city\": {\n        \"id\": \"5cf586c053a63446b014632e\",\n        \"name\": \"Foz do Iguaçu\"\n      },\n      \"company\": {\n        \"id\": \"5cf586c053a63446b0146332\",\n        \"name\": \"Kunze, Cassin and Ortiz\"\n      }\n    },\n    {\n      \"id\": \"5cf586c053a63446b014633d\",\n      \"title\": \"Vero exercitationem consequatur non.\",\n      \"description\": \"Hic accusamus similique. Non et nisi. Vero tenetur hic.\",\n      \"city\": {\n        \"id\": \"5cf586c053a63446b014632e\",\n        \"name\": \"Foz do Iguaçu\"\n      },\n      \"company\": {\n        \"id\": \"5cf586c053a63446b0146332\",\n        \"name\": \"Kunze, Cassin and Ortiz\"\n      }\n    },\n    {\n      \"id\": \"5cf586c053a63446b014633e\",\n      \"title\": \"Sit asperiores ullam eaque.\",\n      \"description\": \"Consequatur veniam magnam. Dolorum voluptatum eligendi. Porro mollitia doloribus.\",\n      \"city\": {\n        \"id\": \"5cf586c053a63446b014632e\",\n        \"name\": \"Foz do Iguaçu\"\n      },\n      \"company\": {\n        \"id\": \"5cf586c053a63446b0146332\",\n        \"name\": \"Kunze, Cassin and Ortiz\"\n      }\n    },\n    {\n      \"id\": \"5cf586c053a63446b014633f\",\n      \"title\": \"Temporibus corporis quo incidunt.\",\n      \"description\": \"Et quasi illum. Ratione quod esse. Quo consequatur ad.\",\n      \"city\": {\n        \"id\": \"5cf586c053a63446b014632e\",\n        \"name\": \"Foz do Iguaçu\"\n      },\n      \"company\": {\n        \"id\": \"5cf586c053a63446b0146332\",\n        \"name\": \"Kunze, Cassin and Ortiz\"\n      }\n    },\n    {\n      \"id\": \"5cf586c053a63446b0146340\",\n      \"title\": \"Rerum quis earum sapiente.\",\n      \"description\": \"Quibusdam repellat quisquam. Ut perferendis totam. Odio pariatur laudantium.\",\n      \"city\": {\n        \"id\": \"5cf586c053a63446b014632e\",\n        \"name\": \"Foz do Iguaçu\"\n      },\n      \"company\": {\n        \"id\": \"5cf586c053a63446b0146332\",\n        \"name\": \"Kunze, Cassin and Ortiz\"\n      }\n    },\n    {\n      \"id\": \"5cf586c053a63446b0146341\",\n      \"title\": \"Alias porro minima quis.\",\n      \"description\": \"Magnam qui facere. Sint voluptas quisquam. Omnis placeat sint.\",\n      \"city\": {\n        \"id\": \"5cf586c053a63446b014632e\",\n        \"name\": \"Foz do Iguaçu\"\n      },\n      \"company\": {\n        \"id\": \"5cf586c053a63446b0146332\",\n        \"name\": \"Kunze, Cassin and Ortiz\"\n      }\n    },\n    {\n      \"id\": \"5cf586c053a63446b0146342\",\n      \"title\": \"Placeat quis ipsa delectus.\",\n      \"description\": \"Quasi quisquam odit. Error provident eligendi. Omnis aspernatur dolor.\",\n      \"city\": {\n        \"id\": \"5cf586c053a63446b014632e\",\n        \"name\": \"Foz do Iguaçu\"\n      },\n      \"company\": {\n        \"id\": \"5cf586c053a63446b0146332\",\n        \"name\": \"Kunze, Cassin and Ortiz\"\n      }\n    },\n    {\n      \"id\": \"5cf586c053a63446b0146343\",\n      \"title\": \"Dolor dolore et ipsam.\",\n      \"description\": \"Impedit deleniti qui. Sunt incidunt et. Aut quis tempore.\",\n      \"city\": {\n        \"id\": \"5cf586c053a63446b014632e\",\n        \"name\": \"Foz do Iguaçu\"\n      },\n      \"company\": {\n        \"id\": \"5cf586c053a63446b0146332\",\n        \"name\": \"Kunze, Cassin and Ortiz\"\n      }\n    },\n    {\n      \"id\": \"5cf586c053a63446b0146344\",\n      \"title\": \"Qui nobis debitis quasi.\",\n      \"description\": \"Perspiciatis nulla id. Ut pariatur deleniti. Minima magnam deserunt.\",\n      \"city\": {\n        \"id\": \"5cf586c053a63446b014632e\",\n        \"name\": \"Foz do Iguaçu\"\n      },\n      \"company\": {\n        \"id\": \"5cf586c053a63446b0146332\",\n        \"name\": \"Kunze, Cassin and Ortiz\"\n      }\n    },\n    {\n      \"id\": \"5cf586c053a63446b0146345\",\n      \"title\": \"Quo nihil ea sed.\",\n      \"description\": \"Consectetur ea rerum. Et quo delectus. Autem quo et.\",\n      \"city\": {\n        \"id\": \"5cf586c053a63446b014632e\",\n        \"name\": \"Foz do Iguaçu\"\n      },\n      \"company\": {\n        \"id\": \"5cf586c053a63446b0146332\",\n        \"name\": \"Kunze, Cassin and Ortiz\"\n      }\n    },\n    {\n      \"id\": \"5cf586c053a63446b0146346\",\n      \"title\": \"Aut itaque deleniti quisquam.\",\n      \"description\": \"Nobis deleniti quia. Itaque quis magnam. Maxime officiis et.\",\n      \"city\": {\n        \"id\": \"5cf586c053a63446b014632e\",\n        \"name\": \"Foz do Iguaçu\"\n      },\n      \"company\": {\n        \"id\": \"5cf586c053a63446b0146332\",\n        \"name\": \"Kunze, Cassin and Ortiz\"\n      }\n    },\n    {\n      \"id\": \"5cf586c053a63446b0146347\",\n      \"title\": \"Illum quae vero repellendus.\",\n      \"description\": \"Omnis aliquam ratione. At dignissimos quo. Qui blanditiis perspiciatis.\",\n      \"city\": {\n        \"id\": \"5cf586c053a63446b014632e\",\n        \"name\": \"Foz do Iguaçu\"\n      },\n      \"company\": {\n        \"id\": \"5cf586c053a63446b0146332\",\n        \"name\": \"Kunze, Cassin and Ortiz\"\n      }\n    },\n    {\n      \"id\": \"5cf586c053a63446b0146348\",\n      \"title\": \"Velit fugiat eum sapiente.\",\n      \"description\": \"Nesciunt non enim. Ut in est. Qui nam quod.\",\n      \"city\": {\n        \"id\": \"5cf586c053a63446b014632f\",\n        \"name\": \"Curitiba\"\n      },\n      \"company\": {\n        \"id\": \"5cf586c053a63446b0146332\",\n        \"name\": \"Kunze, Cassin and Ortiz\"\n      }\n    },\n    {\n      \"id\": \"5cf586c053a63446b0146349\",\n      \"title\": \"Iusto ipsam est hic.\",\n      \"description\": \"Veritatis dicta beatae. Magni voluptatem vel. Saepe quia error.\",\n      \"city\": {\n        \"id\": \"5cf586c053a63446b014632f\",\n        \"name\": \"Curitiba\"\n      },\n      \"company\": {\n        \"id\": \"5cf586c053a63446b0146332\",\n        \"name\": \"Kunze, Cassin and Ortiz\"\n      }\n    },\n    {\n      \"id\": \"5cf586c053a63446b014634a\",\n      \"title\": \"Veniam iure qui quo.\",\n      \"description\": \"Quia vitae voluptate. Quos ut id. Illo rerum sequi.\",\n      \"city\": {\n        \"id\": \"5cf586c053a63446b014632f\",\n        \"name\": \"Curitiba\"\n      },\n      \"company\": {\n        \"id\": \"5cf586c053a63446b0146332\",\n        \"name\": \"Kunze, Cassin and Ortiz\"\n      }\n    },\n    {\n      \"id\": \"5cf586c053a63446b014634b\",\n      \"title\": \"Velit nihil incidunt autem.\",\n      \"description\": \"Eveniet magni est. Esse maiores qui. In excepturi soluta.\",\n      \"city\": {\n        \"id\": \"5cf586c053a63446b014632f\",\n        \"name\": \"Curitiba\"\n      },\n      \"company\": {\n        \"id\": \"5cf586c053a63446b0146332\",\n        \"name\": \"Kunze, Cassin and Ortiz\"\n      }\n    },\n    {\n      \"id\": \"5cf586c053a63446b014634c\",\n      \"title\": \"Eius exercitationem corporis dolorum.\",\n      \"description\": \"Dolorem error necessitatibus. Dolorem adipisci vel. Quod voluptas dolore.\",\n      \"city\": {\n        \"id\": \"5cf586c053a63446b014632f\",\n        \"name\": \"Curitiba\"\n      },\n      \"company\": {\n        \"id\": \"5cf586c053a63446b0146332\",\n        \"name\": \"Kunze, Cassin and Ortiz\"\n      }\n    }\n  ],\n  \"meta\": {\n    \"current_page\": 1,\n    \"next_page\": 2,\n    \"prev_page\": null,\n    \"total_pages\": 3,\n    \"total_count\": 55,\n    \"page_size\": 25\n  }\n}",
      "response_headers": {
        "Content-Type": "application/json; charset=utf-8",
        "ETag": "W/\"5e2e5972e5d72fb605adde9617f7ae30\"",
        "Cache-Control": "max-age=0, private, must-revalidate",
        "X-Request-Id": "358c4e34-0240-4eb2-a6a8-8c1c55c0f7ce",
        "X-Runtime": "0.086577",
        "Content-Length": "7383"
      },
      "response_content_type": "application/json; charset=utf-8",
      "curl": "curl -g \"http://localhost:3000/complaints?country_id=5cf586c053a63446b0146329\" -X GET \\\n\t-H \"Host: example.org\" \\\n\t-H \"Cookie: \""
    }
  ]
}