{
  "resource": "Complaints",
  "resource_explanation": null,
  "http_method": "GET",
  "route": "/complaints",
  "description": "List complaints filtered by company",
  "explanation": null,
  "parameters": [
    {
      "name": "company_id",
      "description": "Filter complaints by company"
    },
    {
      "name": "country_id",
      "description": "Filter complaints by country"
    },
    {
      "name": "state_id",
      "description": "Filter complaints by state"
    },
    {
      "name": "city_id",
      "description": "Filter complaints by city"
    }
  ],
  "response_fields": [

  ],
  "requests": [
    {
      "request_method": "GET",
      "request_path": "/complaints?company_id=5cf586c053a63446b01462e6",
      "request_body": null,
      "request_headers": {
        "Host": "example.org",
        "Cookie": ""
      },
      "request_query_parameters": {
        "company_id": "5cf586c053a63446b01462e6"
      },
      "request_content_type": null,
      "response_status": 200,
      "response_status_text": "OK",
      "response_body": "{\n  \"complaints\": [\n    {\n      \"id\": \"5cf586c053a63446b01462e8\",\n      \"title\": \"Odit possimus enim dolores.\",\n      \"description\": \"Quia ipsam sit. Labore quia quos. Sunt similique vel.\",\n      \"city\": {\n        \"id\": \"5cf586c053a63446b01462e2\",\n        \"name\": \"Foz do Iguaçu\"\n      },\n      \"company\": {\n        \"id\": \"5cf586c053a63446b01462e6\",\n        \"name\": \"O'Reilly-Quigley\"\n      }\n    },\n    {\n      \"id\": \"5cf586c053a63446b01462e9\",\n      \"title\": \"Voluptatibus id est totam.\",\n      \"description\": \"Dolores at quo. Incidunt enim aliquid. Voluptatibus nulla debitis.\",\n      \"city\": {\n        \"id\": \"5cf586c053a63446b01462e2\",\n        \"name\": \"Foz do Iguaçu\"\n      },\n      \"company\": {\n        \"id\": \"5cf586c053a63446b01462e6\",\n        \"name\": \"O'Reilly-Quigley\"\n      }\n    },\n    {\n      \"id\": \"5cf586c053a63446b01462ea\",\n      \"title\": \"Omnis aperiam qui aspernatur.\",\n      \"description\": \"Hic sapiente sit. Laudantium quas delectus. Nihil provident ea.\",\n      \"city\": {\n        \"id\": \"5cf586c053a63446b01462e2\",\n        \"name\": \"Foz do Iguaçu\"\n      },\n      \"company\": {\n        \"id\": \"5cf586c053a63446b01462e6\",\n        \"name\": \"O'Reilly-Quigley\"\n      }\n    },\n    {\n      \"id\": \"5cf586c053a63446b01462eb\",\n      \"title\": \"Recusandae amet consequatur esse.\",\n      \"description\": \"Pariatur perferendis vel. Iusto eum alias. Blanditiis est animi.\",\n      \"city\": {\n        \"id\": \"5cf586c053a63446b01462e2\",\n        \"name\": \"Foz do Iguaçu\"\n      },\n      \"company\": {\n        \"id\": \"5cf586c053a63446b01462e6\",\n        \"name\": \"O'Reilly-Quigley\"\n      }\n    },\n    {\n      \"id\": \"5cf586c053a63446b01462ec\",\n      \"title\": \"Eos ab dignissimos ipsam.\",\n      \"description\": \"Ducimus laborum ipsa. Et est qui. A tenetur suscipit.\",\n      \"city\": {\n        \"id\": \"5cf586c053a63446b01462e2\",\n        \"name\": \"Foz do Iguaçu\"\n      },\n      \"company\": {\n        \"id\": \"5cf586c053a63446b01462e6\",\n        \"name\": \"O'Reilly-Quigley\"\n      }\n    },\n    {\n      \"id\": \"5cf586c053a63446b01462ed\",\n      \"title\": \"Rerum ratione voluptatem ut.\",\n      \"description\": \"Possimus inventore nam. Deserunt ea eaque. Quo ad laudantium.\",\n      \"city\": {\n        \"id\": \"5cf586c053a63446b01462e2\",\n        \"name\": \"Foz do Iguaçu\"\n      },\n      \"company\": {\n        \"id\": \"5cf586c053a63446b01462e6\",\n        \"name\": \"O'Reilly-Quigley\"\n      }\n    },\n    {\n      \"id\": \"5cf586c053a63446b01462ee\",\n      \"title\": \"Dolores odit aut consectetur.\",\n      \"description\": \"Qui suscipit perferendis. Sit recusandae quo. Autem maiores qui.\",\n      \"city\": {\n        \"id\": \"5cf586c053a63446b01462e2\",\n        \"name\": \"Foz do Iguaçu\"\n      },\n      \"company\": {\n        \"id\": \"5cf586c053a63446b01462e6\",\n        \"name\": \"O'Reilly-Quigley\"\n      }\n    },\n    {\n      \"id\": \"5cf586c053a63446b01462ef\",\n      \"title\": \"Laborum voluptatem non velit.\",\n      \"description\": \"Pariatur adipisci id. Quia a temporibus. Autem voluptatem magni.\",\n      \"city\": {\n        \"id\": \"5cf586c053a63446b01462e2\",\n        \"name\": \"Foz do Iguaçu\"\n      },\n      \"company\": {\n        \"id\": \"5cf586c053a63446b01462e6\",\n        \"name\": \"O'Reilly-Quigley\"\n      }\n    },\n    {\n      \"id\": \"5cf586c053a63446b01462f0\",\n      \"title\": \"Atque beatae praesentium rerum.\",\n      \"description\": \"Perspiciatis quia nulla. Molestias vel quae. Adipisci fugiat qui.\",\n      \"city\": {\n        \"id\": \"5cf586c053a63446b01462e2\",\n        \"name\": \"Foz do Iguaçu\"\n      },\n      \"company\": {\n        \"id\": \"5cf586c053a63446b01462e6\",\n        \"name\": \"O'Reilly-Quigley\"\n      }\n    },\n    {\n      \"id\": \"5cf586c053a63446b01462f1\",\n      \"title\": \"Culpa a aut accusamus.\",\n      \"description\": \"Soluta dolorum iste. Delectus dolores ad. Inventore incidunt velit.\",\n      \"city\": {\n        \"id\": \"5cf586c053a63446b01462e2\",\n        \"name\": \"Foz do Iguaçu\"\n      },\n      \"company\": {\n        \"id\": \"5cf586c053a63446b01462e6\",\n        \"name\": \"O'Reilly-Quigley\"\n      }\n    },\n    {\n      \"id\": \"5cf586c053a63446b01462f2\",\n      \"title\": \"Exercitationem velit illum possimus.\",\n      \"description\": \"Rerum qui possimus. Quam et quo. Vitae sunt modi.\",\n      \"city\": {\n        \"id\": \"5cf586c053a63446b01462e2\",\n        \"name\": \"Foz do Iguaçu\"\n      },\n      \"company\": {\n        \"id\": \"5cf586c053a63446b01462e6\",\n        \"name\": \"O'Reilly-Quigley\"\n      }\n    },\n    {\n      \"id\": \"5cf586c053a63446b01462f3\",\n      \"title\": \"Autem facere molestias ipsa.\",\n      \"description\": \"Debitis unde repudiandae. Quod ut consequatur. Ipsam natus temporibus.\",\n      \"city\": {\n        \"id\": \"5cf586c053a63446b01462e2\",\n        \"name\": \"Foz do Iguaçu\"\n      },\n      \"company\": {\n        \"id\": \"5cf586c053a63446b01462e6\",\n        \"name\": \"O'Reilly-Quigley\"\n      }\n    },\n    {\n      \"id\": \"5cf586c053a63446b01462f4\",\n      \"title\": \"Veniam quae natus tempora.\",\n      \"description\": \"Quaerat ab odit. Itaque quod quidem. Repellendus omnis aliquam.\",\n      \"city\": {\n        \"id\": \"5cf586c053a63446b01462e2\",\n        \"name\": \"Foz do Iguaçu\"\n      },\n      \"company\": {\n        \"id\": \"5cf586c053a63446b01462e6\",\n        \"name\": \"O'Reilly-Quigley\"\n      }\n    },\n    {\n      \"id\": \"5cf586c053a63446b01462f5\",\n      \"title\": \"Iusto quasi illum sequi.\",\n      \"description\": \"Praesentium libero tenetur. Et itaque vero. Est nostrum adipisci.\",\n      \"city\": {\n        \"id\": \"5cf586c053a63446b01462e2\",\n        \"name\": \"Foz do Iguaçu\"\n      },\n      \"company\": {\n        \"id\": \"5cf586c053a63446b01462e6\",\n        \"name\": \"O'Reilly-Quigley\"\n      }\n    },\n    {\n      \"id\": \"5cf586c053a63446b01462f6\",\n      \"title\": \"Corporis nulla nihil facere.\",\n      \"description\": \"Perferendis consequatur consequatur. Recusandae est distinctio. Non quidem deleniti.\",\n      \"city\": {\n        \"id\": \"5cf586c053a63446b01462e2\",\n        \"name\": \"Foz do Iguaçu\"\n      },\n      \"company\": {\n        \"id\": \"5cf586c053a63446b01462e6\",\n        \"name\": \"O'Reilly-Quigley\"\n      }\n    },\n    {\n      \"id\": \"5cf586c053a63446b01462f7\",\n      \"title\": \"Ipsam odit beatae tempore.\",\n      \"description\": \"Qui maxime animi. Incidunt consequatur nihil. Fuga et officia.\",\n      \"city\": {\n        \"id\": \"5cf586c053a63446b01462e2\",\n        \"name\": \"Foz do Iguaçu\"\n      },\n      \"company\": {\n        \"id\": \"5cf586c053a63446b01462e6\",\n        \"name\": \"O'Reilly-Quigley\"\n      }\n    },\n    {\n      \"id\": \"5cf586c053a63446b01462f8\",\n      \"title\": \"Voluptatum quis qui fugiat.\",\n      \"description\": \"Expedita odio est. Rem veniam et. Alias explicabo saepe.\",\n      \"city\": {\n        \"id\": \"5cf586c053a63446b01462e2\",\n        \"name\": \"Foz do Iguaçu\"\n      },\n      \"company\": {\n        \"id\": \"5cf586c053a63446b01462e6\",\n        \"name\": \"O'Reilly-Quigley\"\n      }\n    },\n    {\n      \"id\": \"5cf586c053a63446b01462f9\",\n      \"title\": \"Rerum hic quod et.\",\n      \"description\": \"Voluptas quam ducimus. Aut libero odit. Debitis et cum.\",\n      \"city\": {\n        \"id\": \"5cf586c053a63446b01462e2\",\n        \"name\": \"Foz do Iguaçu\"\n      },\n      \"company\": {\n        \"id\": \"5cf586c053a63446b01462e6\",\n        \"name\": \"O'Reilly-Quigley\"\n      }\n    },\n    {\n      \"id\": \"5cf586c053a63446b01462fa\",\n      \"title\": \"Repellendus vitae nam cum.\",\n      \"description\": \"Provident cum architecto. Aut dicta in. Quasi mollitia voluptatum.\",\n      \"city\": {\n        \"id\": \"5cf586c053a63446b01462e2\",\n        \"name\": \"Foz do Iguaçu\"\n      },\n      \"company\": {\n        \"id\": \"5cf586c053a63446b01462e6\",\n        \"name\": \"O'Reilly-Quigley\"\n      }\n    },\n    {\n      \"id\": \"5cf586c053a63446b01462fb\",\n      \"title\": \"Reiciendis sint ratione adipisci.\",\n      \"description\": \"Eveniet nemo esse. Laboriosam non et. Maxime nemo eum.\",\n      \"city\": {\n        \"id\": \"5cf586c053a63446b01462e2\",\n        \"name\": \"Foz do Iguaçu\"\n      },\n      \"company\": {\n        \"id\": \"5cf586c053a63446b01462e6\",\n        \"name\": \"O'Reilly-Quigley\"\n      }\n    },\n    {\n      \"id\": \"5cf586c053a63446b01462fc\",\n      \"title\": \"Molestiae iusto nam iste.\",\n      \"description\": \"Enim blanditiis dolore. Alias voluptates illum. Suscipit temporibus voluptates.\",\n      \"city\": {\n        \"id\": \"5cf586c053a63446b01462e3\",\n        \"name\": \"Curitiba\"\n      },\n      \"company\": {\n        \"id\": \"5cf586c053a63446b01462e6\",\n        \"name\": \"O'Reilly-Quigley\"\n      }\n    },\n    {\n      \"id\": \"5cf586c053a63446b01462fd\",\n      \"title\": \"In aut et quas.\",\n      \"description\": \"Dolores earum deleniti. Provident exercitationem officia. Quisquam et et.\",\n      \"city\": {\n        \"id\": \"5cf586c053a63446b01462e3\",\n        \"name\": \"Curitiba\"\n      },\n      \"company\": {\n        \"id\": \"5cf586c053a63446b01462e6\",\n        \"name\": \"O'Reilly-Quigley\"\n      }\n    },\n    {\n      \"id\": \"5cf586c053a63446b01462fe\",\n      \"title\": \"Voluptatum voluptas quos molestiae.\",\n      \"description\": \"Atque repellat dolorum. Dolorem debitis quibusdam. Repellendus quo sit.\",\n      \"city\": {\n        \"id\": \"5cf586c053a63446b01462e3\",\n        \"name\": \"Curitiba\"\n      },\n      \"company\": {\n        \"id\": \"5cf586c053a63446b01462e6\",\n        \"name\": \"O'Reilly-Quigley\"\n      }\n    },\n    {\n      \"id\": \"5cf586c053a63446b01462ff\",\n      \"title\": \"Autem molestiae laborum optio.\",\n      \"description\": \"Eius sapiente dolor. Animi repellat impedit. In esse et.\",\n      \"city\": {\n        \"id\": \"5cf586c053a63446b01462e3\",\n        \"name\": \"Curitiba\"\n      },\n      \"company\": {\n        \"id\": \"5cf586c053a63446b01462e6\",\n        \"name\": \"O'Reilly-Quigley\"\n      }\n    },\n    {\n      \"id\": \"5cf586c053a63446b0146300\",\n      \"title\": \"Rerum libero nemo aut.\",\n      \"description\": \"Culpa ut optio. Vitae qui et. Voluptatem officiis qui.\",\n      \"city\": {\n        \"id\": \"5cf586c053a63446b01462e3\",\n        \"name\": \"Curitiba\"\n      },\n      \"company\": {\n        \"id\": \"5cf586c053a63446b01462e6\",\n        \"name\": \"O'Reilly-Quigley\"\n      }\n    }\n  ],\n  \"meta\": {\n    \"current_page\": 1,\n    \"next_page\": 2,\n    \"prev_page\": null,\n    \"total_pages\": 2,\n    \"total_count\": 50,\n    \"page_size\": 25\n  }\n}",
      "response_headers": {
        "Content-Type": "application/json; charset=utf-8",
        "ETag": "W/\"5f3969547e170e57055971efc018873d\"",
        "Cache-Control": "max-age=0, private, must-revalidate",
        "X-Request-Id": "b608a5ee-718a-470d-9f91-a64cd1e21ee6",
        "X-Runtime": "0.071857",
        "Content-Length": "7271"
      },
      "response_content_type": "application/json; charset=utf-8",
      "curl": "curl -g \"http://localhost:3000/complaints?company_id=5cf586c053a63446b01462e6\" -X GET \\\n\t-H \"Host: example.org\" \\\n\t-H \"Cookie: \""
    }
  ]
}