{
  "resource": "Complaints",
  "resource_explanation": null,
  "http_method": "GET",
  "route": "/complaints",
  "description": "List complaints filtered by state",
  "explanation": null,
  "parameters": [
    {
      "name": "company_id",
      "description": "Filter complaints by company"
    },
    {
      "name": "country_id",
      "description": "Filter complaints by country"
    },
    {
      "name": "state_id",
      "description": "Filter complaints by state"
    },
    {
      "name": "city_id",
      "description": "Filter complaints by city"
    }
  ],
  "response_fields": [

  ],
  "requests": [
    {
      "request_method": "GET",
      "request_path": "/complaints?state_id=5cf586c053a63446b0146377",
      "request_body": null,
      "request_headers": {
        "Host": "example.org",
        "Cookie": ""
      },
      "request_query_parameters": {
        "state_id": "5cf586c053a63446b0146377"
      },
      "request_content_type": null,
      "response_status": 200,
      "response_status_text": "OK",
      "response_body": "{\n  \"complaints\": [\n    {\n      \"id\": \"5cf586c053a63446b0146380\",\n      \"title\": \"Velit qui facilis autem.\",\n      \"description\": \"Cumque quae ab. Aperiam minima maxime. Nam itaque rem.\",\n      \"city\": {\n        \"id\": \"5cf586c053a63446b014637a\",\n        \"name\": \"Foz do Iguaçu\"\n      },\n      \"company\": {\n        \"id\": \"5cf586c053a63446b014637e\",\n        \"name\": \"Hermann, Mohr and Walsh\"\n      }\n    },\n    {\n      \"id\": \"5cf586c053a63446b0146381\",\n      \"title\": \"Excepturi voluptatem veniam omnis.\",\n      \"description\": \"Suscipit dolor aut. Labore quos voluptas. Accusantium eligendi et.\",\n      \"city\": {\n        \"id\": \"5cf586c053a63446b014637a\",\n        \"name\": \"Foz do Iguaçu\"\n      },\n      \"company\": {\n        \"id\": \"5cf586c053a63446b014637e\",\n        \"name\": \"Hermann, Mohr and Walsh\"\n      }\n    },\n    {\n      \"id\": \"5cf586c053a63446b0146382\",\n      \"title\": \"Velit animi iste enim.\",\n      \"description\": \"Atque ea iusto. Soluta delectus voluptates. Tempore fuga dolores.\",\n      \"city\": {\n        \"id\": \"5cf586c053a63446b014637a\",\n        \"name\": \"Foz do Iguaçu\"\n      },\n      \"company\": {\n        \"id\": \"5cf586c053a63446b014637e\",\n        \"name\": \"Hermann, Mohr and Walsh\"\n      }\n    },\n    {\n      \"id\": \"5cf586c053a63446b0146383\",\n      \"title\": \"Placeat quis fuga molestiae.\",\n      \"description\": \"Rem ad dolores. Fuga sed similique. Voluptatem sunt ut.\",\n      \"city\": {\n        \"id\": \"5cf586c053a63446b014637a\",\n        \"name\": \"Foz do Iguaçu\"\n      },\n      \"company\": {\n        \"id\": \"5cf586c053a63446b014637e\",\n        \"name\": \"Hermann, Mohr and Walsh\"\n      }\n    },\n    {\n      \"id\": \"5cf586c053a63446b0146384\",\n      \"title\": \"Similique dolorem aut et.\",\n      \"description\": \"Incidunt autem repellendus. Nihil quibusdam sunt. Illum et accusamus.\",\n      \"city\": {\n        \"id\": \"5cf586c053a63446b014637a\",\n        \"name\": \"Foz do Iguaçu\"\n      },\n      \"company\": {\n        \"id\": \"5cf586c053a63446b014637e\",\n        \"name\": \"Hermann, Mohr and Walsh\"\n      }\n    },\n    {\n      \"id\": \"5cf586c053a63446b0146385\",\n      \"title\": \"A earum atque quis.\",\n      \"description\": \"Nobis enim officiis. Ut consequatur hic. Est dolor totam.\",\n      \"city\": {\n        \"id\": \"5cf586c053a63446b014637a\",\n        \"name\": \"Foz do Iguaçu\"\n      },\n      \"company\": {\n        \"id\": \"5cf586c053a63446b014637e\",\n        \"name\": \"Hermann, Mohr and Walsh\"\n      }\n    },\n    {\n      \"id\": \"5cf586c053a63446b0146386\",\n      \"title\": \"Quaerat porro iste vero.\",\n      \"description\": \"Atque ab ratione. Quasi culpa illo. Nam minus dolorum.\",\n      \"city\": {\n        \"id\": \"5cf586c053a63446b014637a\",\n        \"name\": \"Foz do Iguaçu\"\n      },\n      \"company\": {\n        \"id\": \"5cf586c053a63446b014637e\",\n        \"name\": \"Hermann, Mohr and Walsh\"\n      }\n    },\n    {\n      \"id\": \"5cf586c053a63446b0146387\",\n      \"title\": \"Provident nemo ipsa quia.\",\n      \"description\": \"Necessitatibus ipsa nesciunt. Repudiandae ut est. Hic quos similique.\",\n      \"city\": {\n        \"id\": \"5cf586c053a63446b014637a\",\n        \"name\": \"Foz do Iguaçu\"\n      },\n      \"company\": {\n        \"id\": \"5cf586c053a63446b014637e\",\n        \"name\": \"Hermann, Mohr and Walsh\"\n      }\n    },\n    {\n      \"id\": \"5cf586c053a63446b0146388\",\n      \"title\": \"Facilis molestias molestiae eos.\",\n      \"description\": \"Voluptates provident dolorem. Excepturi quas autem. Laboriosam qui et.\",\n      \"city\": {\n        \"id\": \"5cf586c053a63446b014637a\",\n        \"name\": \"Foz do Iguaçu\"\n      },\n      \"company\": {\n        \"id\": \"5cf586c053a63446b014637e\",\n        \"name\": \"Hermann, Mohr and Walsh\"\n      }\n    },\n    {\n      \"id\": \"5cf586c053a63446b0146389\",\n      \"title\": \"Cum dolor maiores tempora.\",\n      \"description\": \"Modi qui repellendus. Maxime sint ab. Qui rerum doloremque.\",\n      \"city\": {\n        \"id\": \"5cf586c053a63446b014637a\",\n        \"name\": \"Foz do Iguaçu\"\n      },\n      \"company\": {\n        \"id\": \"5cf586c053a63446b014637e\",\n        \"name\": \"Hermann, Mohr and Walsh\"\n      }\n    },\n    {\n      \"id\": \"5cf586c053a63446b014638a\",\n      \"title\": \"Voluptas est facere nihil.\",\n      \"description\": \"Est optio a. Totam aut quidem. Totam in numquam.\",\n      \"city\": {\n        \"id\": \"5cf586c053a63446b014637a\",\n        \"name\": \"Foz do Iguaçu\"\n      },\n      \"company\": {\n        \"id\": \"5cf586c053a63446b014637e\",\n        \"name\": \"Hermann, Mohr and Walsh\"\n      }\n    },\n    {\n      \"id\": \"5cf586c053a63446b014638b\",\n      \"title\": \"Quod consequatur sed illum.\",\n      \"description\": \"Minus assumenda iure. Assumenda quae et. Delectus et temporibus.\",\n      \"city\": {\n        \"id\": \"5cf586c053a63446b014637a\",\n        \"name\": \"Foz do Iguaçu\"\n      },\n      \"company\": {\n        \"id\": \"5cf586c053a63446b014637e\",\n        \"name\": \"Hermann, Mohr and Walsh\"\n      }\n    },\n    {\n      \"id\": \"5cf586c053a63446b014638c\",\n      \"title\": \"Sunt quo voluptatem tenetur.\",\n      \"description\": \"Esse quisquam sed. Fugit est nostrum. Distinctio cumque consequuntur.\",\n      \"city\": {\n        \"id\": \"5cf586c053a63446b014637a\",\n        \"name\": \"Foz do Iguaçu\"\n      },\n      \"company\": {\n        \"id\": \"5cf586c053a63446b014637e\",\n        \"name\": \"Hermann, Mohr and Walsh\"\n      }\n    },\n    {\n      \"id\": \"5cf586c053a63446b014638d\",\n      \"title\": \"Vel est similique quas.\",\n      \"description\": \"Esse ut voluptatum. Architecto officia rerum. Eaque consectetur maiores.\",\n      \"city\": {\n        \"id\": \"5cf586c053a63446b014637a\",\n        \"name\": \"Foz do Iguaçu\"\n      },\n      \"company\": {\n        \"id\": \"5cf586c053a63446b014637e\",\n        \"name\": \"Hermann, Mohr and Walsh\"\n      }\n    },\n    {\n      \"id\": \"5cf586c053a63446b014638e\",\n      \"title\": \"Vel officia sit eum.\",\n      \"description\": \"Nulla dolorem optio. Magnam nostrum ducimus. Corrupti deserunt recusandae.\",\n      \"city\": {\n        \"id\": \"5cf586c053a63446b014637a\",\n        \"name\": \"Foz do Iguaçu\"\n      },\n      \"company\": {\n        \"id\": \"5cf586c053a63446b014637e\",\n        \"name\": \"Hermann, Mohr and Walsh\"\n      }\n    },\n    {\n      \"id\": \"5cf586c053a63446b014638f\",\n      \"title\": \"Nisi distinctio repellat neque.\",\n      \"description\": \"Eius animi eos. Velit voluptatem reiciendis. Ut ut dolorem.\",\n      \"city\": {\n        \"id\": \"5cf586c053a63446b014637a\",\n        \"name\": \"Foz do Iguaçu\"\n      },\n      \"company\": {\n        \"id\": \"5cf586c053a63446b014637e\",\n        \"name\": \"Hermann, Mohr and Walsh\"\n      }\n    },\n    {\n      \"id\": \"5cf586c053a63446b0146390\",\n      \"title\": \"Voluptatem tenetur hic necessitatibus.\",\n      \"description\": \"Repudiandae odit perspiciatis. Et consequatur amet. Deserunt aut qui.\",\n      \"city\": {\n        \"id\": \"5cf586c053a63446b014637a\",\n        \"name\": \"Foz do Iguaçu\"\n      },\n      \"company\": {\n        \"id\": \"5cf586c053a63446b014637e\",\n        \"name\": \"Hermann, Mohr and Walsh\"\n      }\n    },\n    {\n      \"id\": \"5cf586c053a63446b0146391\",\n      \"title\": \"Nemo sint corrupti quisquam.\",\n      \"description\": \"Harum qui mollitia. Dolores reiciendis consequatur. Rem porro molestiae.\",\n      \"city\": {\n        \"id\": \"5cf586c053a63446b014637a\",\n        \"name\": \"Foz do Iguaçu\"\n      },\n      \"company\": {\n        \"id\": \"5cf586c053a63446b014637e\",\n        \"name\": \"Hermann, Mohr and Walsh\"\n      }\n    },\n    {\n      \"id\": \"5cf586c053a63446b0146392\",\n      \"title\": \"Corrupti sunt corporis aut.\",\n      \"description\": \"Explicabo alias voluptatibus. Quaerat assumenda id. Occaecati voluptatem eveniet.\",\n      \"city\": {\n        \"id\": \"5cf586c053a63446b014637a\",\n        \"name\": \"Foz do Iguaçu\"\n      },\n      \"company\": {\n        \"id\": \"5cf586c053a63446b014637e\",\n        \"name\": \"Hermann, Mohr and Walsh\"\n      }\n    },\n    {\n      \"id\": \"5cf586c053a63446b0146393\",\n      \"title\": \"Possimus amet sit et.\",\n      \"description\": \"Quia possimus ut. Sit fugiat quaerat. Eligendi rerum natus.\",\n      \"city\": {\n        \"id\": \"5cf586c053a63446b014637a\",\n        \"name\": \"Foz do Iguaçu\"\n      },\n      \"company\": {\n        \"id\": \"5cf586c053a63446b014637e\",\n        \"name\": \"Hermann, Mohr and Walsh\"\n      }\n    },\n    {\n      \"id\": \"5cf586c053a63446b0146394\",\n      \"title\": \"Maxime quo asperiores doloribus.\",\n      \"description\": \"Doloribus molestias ullam. Dolor vel magni. Earum tempora consequatur.\",\n      \"city\": {\n        \"id\": \"5cf586c053a63446b014637b\",\n        \"name\": \"Curitiba\"\n      },\n      \"company\": {\n        \"id\": \"5cf586c053a63446b014637e\",\n        \"name\": \"Hermann, Mohr and Walsh\"\n      }\n    },\n    {\n      \"id\": \"5cf586c053a63446b0146395\",\n      \"title\": \"Iste exercitationem velit ratione.\",\n      \"description\": \"Sunt molestiae doloremque. Aut vero et. Officia cumque est.\",\n      \"city\": {\n        \"id\": \"5cf586c053a63446b014637b\",\n        \"name\": \"Curitiba\"\n      },\n      \"company\": {\n        \"id\": \"5cf586c053a63446b014637e\",\n        \"name\": \"Hermann, Mohr and Walsh\"\n      }\n    },\n    {\n      \"id\": \"5cf586c053a63446b0146396\",\n      \"title\": \"Numquam id repellat perferendis.\",\n      \"description\": \"Qui et ab. Sequi expedita aut. Deleniti libero ea.\",\n      \"city\": {\n        \"id\": \"5cf586c053a63446b014637b\",\n        \"name\": \"Curitiba\"\n      },\n      \"company\": {\n        \"id\": \"5cf586c053a63446b014637e\",\n        \"name\": \"Hermann, Mohr and Walsh\"\n      }\n    },\n    {\n      \"id\": \"5cf586c053a63446b0146397\",\n      \"title\": \"Saepe alias numquam recusandae.\",\n      \"description\": \"Excepturi minima commodi. Aut ut velit. Laboriosam quos eos.\",\n      \"city\": {\n        \"id\": \"5cf586c053a63446b014637b\",\n        \"name\": \"Curitiba\"\n      },\n      \"company\": {\n        \"id\": \"5cf586c053a63446b014637e\",\n        \"name\": \"Hermann, Mohr and Walsh\"\n      }\n    },\n    {\n      \"id\": \"5cf586c053a63446b0146398\",\n      \"title\": \"Amet deserunt odio est.\",\n      \"description\": \"Cum doloribus eos. Qui officiis adipisci. Id neque omnis.\",\n      \"city\": {\n        \"id\": \"5cf586c053a63446b014637b\",\n        \"name\": \"Curitiba\"\n      },\n      \"company\": {\n        \"id\": \"5cf586c053a63446b014637e\",\n        \"name\": \"Hermann, Mohr and Walsh\"\n      }\n    }\n  ],\n  \"meta\": {\n    \"current_page\": 1,\n    \"next_page\": 2,\n    \"prev_page\": null,\n    \"total_pages\": 2,\n    \"total_count\": 35,\n    \"page_size\": 25\n  }\n}",
      "response_headers": {
        "Content-Type": "application/json; charset=utf-8",
        "ETag": "W/\"09e86fd388d1940ea8de95b6c4ff2320\"",
        "Cache-Control": "max-age=0, private, must-revalidate",
        "X-Request-Id": "8db5614d-35e3-4b50-8679-dd4f340956d2",
        "X-Runtime": "0.075584",
        "Content-Length": "7452"
      },
      "response_content_type": "application/json; charset=utf-8",
      "curl": "curl -g \"http://localhost:3000/complaints?state_id=5cf586c053a63446b0146377\" -X GET \\\n\t-H \"Host: example.org\" \\\n\t-H \"Cookie: \""
    }
  ]
}