{
  "resource": "Companies",
  "resource_explanation": null,
  "http_method": "GET",
  "route": "/companies",
  "description": "List companies with page and size",
  "explanation": null,
  "parameters": [
    {
      "name": "page",
      "description": "Page number"
    },
    {
      "name": "size",
      "description": "Per page maximum records"
    }
  ],
  "response_fields": [

  ],
  "requests": [
    {
      "request_method": "GET",
      "request_path": "/companies?page=1&size=5",
      "request_body": null,
      "request_headers": {
        "Host": "example.org",
        "Cookie": ""
      },
      "request_query_parameters": {
        "page": "1",
        "size": "5"
      },
      "request_content_type": null,
      "response_status": 200,
      "response_status_text": "OK",
      "response_body": "{\n  \"companies\": [\n    {\n      \"id\": \"5cf5476a53a6340b59865b09\",\n      \"name\": \"Rippin, Veum and Brekke\"\n    },\n    {\n      \"id\": \"5cf5476a53a6340b59865b0a\",\n      \"name\": \"Schroeder-Crist\"\n    },\n    {\n      \"id\": \"5cf5476a53a6340b59865b0b\",\n      \"name\": \"Wolf Group\"\n    },\n    {\n      \"id\": \"5cf5476a53a6340b59865b0c\",\n      \"name\": \"Koch Group\"\n    },\n    {\n      \"id\": \"5cf5476a53a6340b59865b0d\",\n      \"name\": \"Dietrich Inc\"\n    }\n  ],\n  \"meta\": {\n    \"current_page\": 1,\n    \"next_page\": 2,\n    \"prev_page\": null,\n    \"total_pages\": 2,\n    \"total_count\": 10,\n    \"page_size\": 5\n  }\n}",
      "response_headers": {
        "Content-Type": "application/json; charset=utf-8",
        "ETag": "W/\"bb47a3b6b2afd8ba3dfe57ce922aa2d7\"",
        "Cache-Control": "max-age=0, private, must-revalidate",
        "X-Request-Id": "652973e3-b49a-458b-9afa-e1e296584449",
        "X-Runtime": "0.004694",
        "Content-Length": "409"
      },
      "response_content_type": "application/json; charset=utf-8",
      "curl": "curl -g \"http://localhost:3000/companies?page=1&size=5\" -X GET \\\n\t-H \"Host: example.org\" \\\n\t-H \"Cookie: \""
    }
  ]
}