{
  "resource": "States",
  "resource_explanation": null,
  "http_method": "GET",
  "route": "/states",
  "description": "List states with page and size",
  "explanation": null,
  "parameters": [
    {
      "name": "page",
      "description": "Page number"
    },
    {
      "name": "size",
      "description": "Per page maximum records"
    }
  ],
  "response_fields": [

  ],
  "requests": [
    {
      "request_method": "GET",
      "request_path": "/states?page=1&size=5",
      "request_body": null,
      "request_headers": {
        "Host": "example.org",
        "Cookie": ""
      },
      "request_query_parameters": {
        "page": "1",
        "size": "5"
      },
      "request_content_type": null,
      "response_status": 200,
      "response_status_text": "OK",
      "response_body": "{\n  \"states\": [\n    {\n      \"id\": \"5cf565b053a63425066b931a\",\n      \"name\": \"Alaska\",\n      \"country\": {\n        \"id\": \"5cf565b053a63425066b9319\",\n        \"name\": \"Antigua and Barbuda\"\n      }\n    },\n    {\n      \"id\": \"5cf565b053a63425066b931c\",\n      \"name\": \"West Virginia\",\n      \"country\": {\n        \"id\": \"5cf565b053a63425066b931b\",\n        \"name\": \"Morocco\"\n      }\n    },\n    {\n      \"id\": \"5cf565b053a63425066b931e\",\n      \"name\": \"Maryland\",\n      \"country\": {\n        \"id\": \"5cf565b053a63425066b931d\",\n        \"name\": \"Palau\"\n      }\n    },\n    {\n      \"id\": \"5cf565b053a63425066b9320\",\n      \"name\": \"Arkansas\",\n      \"country\": {\n        \"id\": \"5cf565b053a63425066b931f\",\n        \"name\": \"Anguilla\"\n      }\n    },\n    {\n      \"id\": \"5cf565b153a63425066b9322\",\n      \"name\": \"New Mexico\",\n      \"country\": {\n        \"id\": \"5cf565b153a63425066b9321\",\n        \"name\": \"Bangladesh\"\n      }\n    }\n  ],\n  \"meta\": {\n    \"current_page\": 1,\n    \"next_page\": 2,\n    \"prev_page\": null,\n    \"total_pages\": 2,\n    \"total_count\": 10,\n    \"page_size\": 5\n  }\n}",
      "response_headers": {
        "Content-Type": "application/json; charset=utf-8",
        "ETag": "W/\"a018704c3beeed756ed0003573be28bc\"",
        "Cache-Control": "max-age=0, private, must-revalidate",
        "X-Request-Id": "911fc0cc-3390-4e6d-9fe8-a540949ff739",
        "X-Runtime": "0.010193",
        "Content-Length": "700"
      },
      "response_content_type": "application/json; charset=utf-8",
      "curl": "curl -g \"http://localhost:3000/states?page=1&size=5\" -X GET \\\n\t-H \"Host: example.org\" \\\n\t-H \"Cookie: \""
    }
  ]
}